\relax 
\providecommand\hyper@newdestlabel[2]{}
\providecommand\HyperFirstAtBeginDocument{\AtBeginDocument}
\HyperFirstAtBeginDocument{\ifx\hyper@anchor\@undefined
\global\let\oldcontentsline\contentsline
\gdef\contentsline#1#2#3#4{\oldcontentsline{#1}{#2}{#3}}
\global\let\oldnewlabel\newlabel
\gdef\newlabel#1#2{\newlabelxx{#1}#2}
\gdef\newlabelxx#1#2#3#4#5#6{\oldnewlabel{#1}{{#2}{#3}}}
\AtEndDocument{\ifx\hyper@anchor\@undefined
\let\contentsline\oldcontentsline
\let\newlabel\oldnewlabel
\fi}
\fi}
\global\let\hyper@last\relax 
\gdef\HyperFirstAtBeginDocument#1{#1}
\providecommand\HyField@AuxAddToFields[1]{}
\providecommand\HyField@AuxAddToCoFields[2]{}
\providecommand \oddpage@label [2]{}
\@writefile{toc}{\contentsline {chapter}{\numberline {1}Class Index}{1}{chapter.1}}
\@writefile{lof}{\addvspace {10\p@ }}
\@writefile{lot}{\addvspace {10\p@ }}
\@writefile{toc}{\contentsline {section}{\numberline {1.1}Class List}{1}{section.1.1}}
\@writefile{toc}{\contentsline {chapter}{\numberline {2}Class Documentation}{3}{chapter.2}}
\@writefile{lof}{\addvspace {10\p@ }}
\@writefile{lot}{\addvspace {10\p@ }}
\@writefile{toc}{\contentsline {section}{\numberline {2.1}\discretionary {\unhbox \voidb@x \hbox {\relax \fontsize  {7}{8}\selectfont  $\leftarrow \joinrel  \rhook $}}{}{}\_\discretionary {\unhbox \voidb@x \hbox {\relax \fontsize  {7}{8}\selectfont  $\leftarrow \joinrel  \rhook $}}{}{}\discretionary {\unhbox \voidb@x \hbox {\relax \fontsize  {7}{8}\selectfont  $\leftarrow \joinrel  \rhook $}}{}{}Location\discretionary {\unhbox \voidb@x \hbox {\relax \fontsize  {7}{8}\selectfont  $\leftarrow \joinrel  \rhook $}}{}{}Info Struct Reference}{3}{section.2.1}}
\newlabel{struct___location_info}{{2.1}{3}{\+\_\+\+Location\+Info Struct Reference}{section.2.1}{}}
\newlabel{struct___location_info_a2f8b3e42c121d7b3d781032312069cfc}{{2.1}{3}{Public Attributes}{section*.2}{}}
\newlabel{struct___location_info_a8b32ba38865493cdaade0400229a747c}{{2.1}{3}{Public Attributes}{section*.2}{}}
\newlabel{struct___location_info_a5eab433ca6f11cffb5dbd6abc0a2cd68}{{2.1}{3}{Public Attributes}{section*.2}{}}
\@writefile{toc}{\contentsline {subsection}{\numberline {2.1.1}Detailed Description}{3}{subsection.2.1.1}}
\@writefile{toc}{\contentsline {section}{\numberline {2.2}\discretionary {\unhbox \voidb@x \hbox {\relax \fontsize  {7}{8}\selectfont  $\leftarrow \joinrel  \rhook $}}{}{}\_\discretionary {\unhbox \voidb@x \hbox {\relax \fontsize  {7}{8}\selectfont  $\leftarrow \joinrel  \rhook $}}{}{}\discretionary {\unhbox \voidb@x \hbox {\relax \fontsize  {7}{8}\selectfont  $\leftarrow \joinrel  \rhook $}}{}{}Stream\discretionary {\unhbox \voidb@x \hbox {\relax \fontsize  {7}{8}\selectfont  $\leftarrow \joinrel  \rhook $}}{}{}Info Struct Reference}{3}{section.2.2}}
\newlabel{struct___stream_info}{{2.2}{3}{\+\_\+\+Stream\+Info Struct Reference}{section.2.2}{}}
\newlabel{struct___stream_info_a43481485af19d05f67ac35475aadfedc}{{2.2}{3}{Public Attributes}{section*.3}{}}
\newlabel{struct___stream_info_aa5cad6beff47606b2dbb07ef3a4af44d}{{2.2}{3}{Public Attributes}{section*.3}{}}
\newlabel{struct___stream_info_a17a05e659658a4dbffc7ed69dde64fe2}{{2.2}{3}{Public Attributes}{section*.3}{}}
\@writefile{toc}{\contentsline {subsection}{\numberline {2.2.1}Detailed Description}{3}{subsection.2.2.1}}
\@writefile{toc}{\contentsline {section}{\numberline {2.3}\discretionary {\unhbox \voidb@x \hbox {\relax \fontsize  {7}{8}\selectfont  $\leftarrow \joinrel  \rhook $}}{}{}\_\discretionary {\unhbox \voidb@x \hbox {\relax \fontsize  {7}{8}\selectfont  $\leftarrow \joinrel  \rhook $}}{}{}\discretionary {\unhbox \voidb@x \hbox {\relax \fontsize  {7}{8}\selectfont  $\leftarrow \joinrel  \rhook $}}{}{}Voice\discretionary {\unhbox \voidb@x \hbox {\relax \fontsize  {7}{8}\selectfont  $\leftarrow \joinrel  \rhook $}}{}{}Info Struct Reference}{4}{section.2.3}}
\newlabel{struct___voice_info}{{2.3}{4}{\+\_\+\+Voice\+Info Struct Reference}{section.2.3}{}}
\newlabel{struct___voice_info_a904c7cad9382d0a2872fdc7e4abb085f}{{2.3}{4}{Public Attributes}{section*.4}{}}
\newlabel{struct___voice_info_a00e5182be894293b4e69170c6ab78627}{{2.3}{4}{Public Attributes}{section*.4}{}}
\newlabel{struct___voice_info_a796f59a5a364642cbb1457bc95c1503d}{{2.3}{4}{Public Attributes}{section*.4}{}}
\newlabel{struct___voice_info_af6cb7a49039094deae7891062857a21c}{{2.3}{4}{Public Attributes}{section*.4}{}}
\newlabel{struct___voice_info_a078deb13cd52e8e918a50f8407458882}{{2.3}{4}{Public Attributes}{section*.4}{}}
\newlabel{struct___voice_info_ab9086f0129a4752305901fd340da6d88}{{2.3}{4}{Public Attributes}{section*.4}{}}
\@writefile{toc}{\contentsline {subsection}{\numberline {2.3.1}Detailed Description}{4}{subsection.2.3.1}}
\@writefile{toc}{\contentsline {section}{\numberline {2.4}\discretionary {\unhbox \voidb@x \hbox {\relax \fontsize  {7}{8}\selectfont  $\leftarrow \joinrel  \rhook $}}{}{}\_\discretionary {\unhbox \voidb@x \hbox {\relax \fontsize  {7}{8}\selectfont  $\leftarrow \joinrel  \rhook $}}{}{}\discretionary {\unhbox \voidb@x \hbox {\relax \fontsize  {7}{8}\selectfont  $\leftarrow \joinrel  \rhook $}}{}{}Voice\discretionary {\unhbox \voidb@x \hbox {\relax \fontsize  {7}{8}\selectfont  $\leftarrow \joinrel  \rhook $}}{}{}Oscilloscope Struct Reference}{4}{section.2.4}}
\newlabel{struct___voice_oscilloscope}{{2.4}{4}{\+\_\+\+Voice\+Oscilloscope Struct Reference}{section.2.4}{}}
\newlabel{struct___voice_oscilloscope_a6b9b5ded14e838b40d493828a916b15f}{{2.4}{4}{Public Attributes}{section*.5}{}}
\newlabel{struct___voice_oscilloscope_ac968e3ec9328eab6bd7ec507025ee9ee}{{2.4}{4}{Public Attributes}{section*.5}{}}
\newlabel{struct___voice_oscilloscope_ad6733d4a77474fd4baac6fc3741043d6}{{2.4}{4}{Public Attributes}{section*.5}{}}
\newlabel{struct___voice_oscilloscope_ac600257fd464b4e4ef4895ac8be96932}{{2.4}{4}{Public Attributes}{section*.5}{}}
\newlabel{struct___voice_oscilloscope_aefd9721de859a06d2edba190fb9ae61e}{{2.4}{4}{Public Attributes}{section*.5}{}}
\newlabel{struct___voice_oscilloscope_ab2189df9768548708c850f8b0822e9ed}{{2.4}{4}{Public Attributes}{section*.5}{}}
\newlabel{struct___voice_oscilloscope_ad13a99f2b0ba3c585d5074a20126ab5d}{{2.4}{4}{Public Attributes}{section*.5}{}}
\@writefile{toc}{\contentsline {subsection}{\numberline {2.4.1}Detailed Description}{4}{subsection.2.4.1}}
\@writefile{toc}{\contentsline {section}{\numberline {2.5}\discretionary {\unhbox \voidb@x \hbox {\relax \fontsize  {7}{8}\selectfont  $\leftarrow \joinrel  \rhook $}}{}{}\_\discretionary {\unhbox \voidb@x \hbox {\relax \fontsize  {7}{8}\selectfont  $\leftarrow \joinrel  \rhook $}}{}{}\discretionary {\unhbox \voidb@x \hbox {\relax \fontsize  {7}{8}\selectfont  $\leftarrow \joinrel  \rhook $}}{}{}Voice\discretionary {\unhbox \voidb@x \hbox {\relax \fontsize  {7}{8}\selectfont  $\leftarrow \joinrel  \rhook $}}{}{}Window Struct Reference}{4}{section.2.5}}
\newlabel{struct___voice_window}{{2.5}{4}{\+\_\+\+Voice\+Window Struct Reference}{section.2.5}{}}
\newlabel{struct___voice_window_a9de5e173941e5218e6b0ae90b89a6356}{{2.5}{4}{Public Attributes}{section*.6}{}}
\newlabel{struct___voice_window_ad63ce95aac0e12df2f4a09eba0d5a6b3}{{2.5}{4}{Public Attributes}{section*.6}{}}
\newlabel{struct___voice_window_a7808d734cb341465f00913fc9c86e670}{{2.5}{4}{Public Attributes}{section*.6}{}}
\newlabel{struct___voice_window_a6fc4f99f9869edb86553757b21f261c3}{{2.5}{4}{Public Attributes}{section*.6}{}}
\@writefile{toc}{\contentsline {subsection}{\numberline {2.5.1}Detailed Description}{5}{subsection.2.5.1}}
\@writefile{toc}{\contentsline {section}{\numberline {2.6}\discretionary {\unhbox \voidb@x \hbox {\relax \fontsize  {7}{8}\selectfont  $\leftarrow \joinrel  \rhook $}}{}{}\_\discretionary {\unhbox \voidb@x \hbox {\relax \fontsize  {7}{8}\selectfont  $\leftarrow \joinrel  \rhook $}}{}{}\discretionary {\unhbox \voidb@x \hbox {\relax \fontsize  {7}{8}\selectfont  $\leftarrow \joinrel  \rhook $}}{}{}V\discretionary {\unhbox \voidb@x \hbox {\relax \fontsize  {7}{8}\selectfont  $\leftarrow \joinrel  \rhook $}}{}{}O\discretionary {\unhbox \voidb@x \hbox {\relax \fontsize  {7}{8}\selectfont  $\leftarrow \joinrel  \rhook $}}{}{}S\discretionary {\unhbox \voidb@x \hbox {\relax \fontsize  {7}{8}\selectfont  $\leftarrow \joinrel  \rhook $}}{}{}C\discretionary {\unhbox \voidb@x \hbox {\relax \fontsize  {7}{8}\selectfont  $\leftarrow \joinrel  \rhook $}}{}{}Window Struct Reference}{5}{section.2.6}}
\newlabel{struct___v_o_s_c_window}{{2.6}{5}{\+\_\+\+V\+O\+S\+C\+Window Struct Reference}{section.2.6}{}}
\newlabel{struct___v_o_s_c_window_af0bd47fa5642e703bd84006690f6f8c8}{{2.6}{5}{Public Attributes}{section*.7}{}}
\newlabel{struct___v_o_s_c_window_a75fbe6e56fef102c6c75cff5b9ff2d06}{{2.6}{5}{Public Attributes}{section*.7}{}}
\newlabel{struct___v_o_s_c_window_a3caa0d2f7f812cf8647897e67d045016}{{2.6}{5}{Public Attributes}{section*.7}{}}
\newlabel{struct___v_o_s_c_window_aee89233e79a3e03451740ff00a6725f9}{{2.6}{5}{Public Attributes}{section*.7}{}}
\newlabel{struct___v_o_s_c_window_ad07791e56497219972f0798319eaac44}{{2.6}{5}{Public Attributes}{section*.7}{}}
\@writefile{toc}{\contentsline {subsection}{\numberline {2.6.1}Detailed Description}{5}{subsection.2.6.1}}
\@writefile{toc}{\contentsline {section}{\numberline {2.7}Get\discretionary {\unhbox \voidb@x \hbox {\relax \fontsize  {7}{8}\selectfont  $\leftarrow \joinrel  \rhook $}}{}{}Voicegram\discretionary {\unhbox \voidb@x \hbox {\relax \fontsize  {7}{8}\selectfont  $\leftarrow \joinrel  \rhook $}}{}{}Data Struct Reference}{5}{section.2.7}}
\newlabel{struct_get_voicegram_data}{{2.7}{5}{Get\+Voicegram\+Data Struct Reference}{section.2.7}{}}
\newlabel{struct_get_voicegram_data_a8b9d4990c72a2eaa7c76100a5556e34f}{{2.7}{5}{Public Attributes}{section*.8}{}}
\newlabel{struct_get_voicegram_data_a46cfb66a22369f2efe52694e887fd219}{{2.7}{5}{Public Attributes}{section*.8}{}}
\@writefile{toc}{\contentsline {subsection}{\numberline {2.7.1}Detailed Description}{5}{subsection.2.7.1}}
\@writefile{toc}{\contentsline {section}{\numberline {2.8}Gps\discretionary {\unhbox \voidb@x \hbox {\relax \fontsize  {7}{8}\selectfont  $\leftarrow \joinrel  \rhook $}}{}{}Callback\discretionary {\unhbox \voidb@x \hbox {\relax \fontsize  {7}{8}\selectfont  $\leftarrow \joinrel  \rhook $}}{}{}Data Struct Reference}{6}{section.2.8}}
\newlabel{struct_gps_callback_data}{{2.8}{6}{Gps\+Callback\+Data Struct Reference}{section.2.8}{}}
\newlabel{struct_gps_callback_data_ad18329a28bf23f31967ad2c62287ec7c}{{2.8}{6}{Public Attributes}{section*.9}{}}
\newlabel{struct_gps_callback_data_a959c8dbcab273d2752804032c590cd79}{{2.8}{6}{Public Attributes}{section*.9}{}}
\@writefile{toc}{\contentsline {subsection}{\numberline {2.8.1}Detailed Description}{6}{subsection.2.8.1}}
\@writefile{toc}{\contentsline {section}{\numberline {2.9}G\discretionary {\unhbox \voidb@x \hbox {\relax \fontsize  {7}{8}\selectfont  $\leftarrow \joinrel  \rhook $}}{}{}Voice\discretionary {\unhbox \voidb@x \hbox {\relax \fontsize  {7}{8}\selectfont  $\leftarrow \joinrel  \rhook $}}{}{}Cfg Struct Reference}{6}{section.2.9}}
\newlabel{struct_g_voice_cfg}{{2.9}{6}{G\+Voice\+Cfg Struct Reference}{section.2.9}{}}
\newlabel{struct_g_voice_cfg_a42bd550939305ea93290c6906bb91e24}{{2.9}{6}{Public Attributes}{section*.10}{}}
\@writefile{toc}{\contentsline {subsection}{\numberline {2.9.1}Detailed Description}{6}{subsection.2.9.1}}
\@writefile{toc}{\contentsline {section}{\numberline {2.10}Location\discretionary {\unhbox \voidb@x \hbox {\relax \fontsize  {7}{8}\selectfont  $\leftarrow \joinrel  \rhook $}}{}{}Callback\discretionary {\unhbox \voidb@x \hbox {\relax \fontsize  {7}{8}\selectfont  $\leftarrow \joinrel  \rhook $}}{}{}Data Struct Reference}{6}{section.2.10}}
\newlabel{struct_location_callback_data}{{2.10}{6}{Location\+Callback\+Data Struct Reference}{section.2.10}{}}
\newlabel{struct_location_callback_data_a5e781c6a41541050111398fa1c912d69}{{2.10}{6}{Public Attributes}{section*.11}{}}
\newlabel{struct_location_callback_data_a4b40ad7f7edb01b1c46a08b20ef0cd2c}{{2.10}{6}{Public Attributes}{section*.11}{}}
\@writefile{toc}{\contentsline {subsection}{\numberline {2.10.1}Detailed Description}{6}{subsection.2.10.1}}
\@writefile{toc}{\contentsline {section}{\numberline {2.11}Oscilloscope\discretionary {\unhbox \voidb@x \hbox {\relax \fontsize  {7}{8}\selectfont  $\leftarrow \joinrel  \rhook $}}{}{}Callback\discretionary {\unhbox \voidb@x \hbox {\relax \fontsize  {7}{8}\selectfont  $\leftarrow \joinrel  \rhook $}}{}{}Data Struct Reference}{7}{section.2.11}}
\newlabel{struct_oscilloscope_callback_data}{{2.11}{7}{Oscilloscope\+Callback\+Data Struct Reference}{section.2.11}{}}
\newlabel{struct_oscilloscope_callback_data_a724bada4fc5dab0766bfbec65216f118}{{2.11}{7}{Public Attributes}{section*.12}{}}
\@writefile{toc}{\contentsline {subsection}{\numberline {2.11.1}Detailed Description}{7}{subsection.2.11.1}}
\@writefile{toc}{\contentsline {section}{\numberline {2.12}Page\discretionary {\unhbox \voidb@x \hbox {\relax \fontsize  {7}{8}\selectfont  $\leftarrow \joinrel  \rhook $}}{}{}Info Struct Reference}{7}{section.2.12}}
\newlabel{struct_page_info}{{2.12}{7}{Page\+Info Struct Reference}{section.2.12}{}}
\newlabel{struct_page_info_ad34cd034ec45da8bc1c23fa7e91fd6df}{{2.12}{7}{Public Attributes}{section*.13}{}}
\newlabel{struct_page_info_a9070bbb8cd07be05fcfcb24ccb11d4c6}{{2.12}{7}{Public Attributes}{section*.13}{}}
\newlabel{struct_page_info_abe86d520a58237d4166eaca044aacf2c}{{2.12}{7}{Public Attributes}{section*.13}{}}
\newlabel{struct_page_info_a1d171b127ba17d3210fc069b469fb899}{{2.12}{7}{Public Attributes}{section*.13}{}}
\newlabel{struct_page_info_a5a0072387bb4c43eb23d835b0b0c8c36}{{2.12}{7}{Public Attributes}{section*.13}{}}
\@writefile{toc}{\contentsline {subsection}{\numberline {2.12.1}Detailed Description}{7}{subsection.2.12.1}}
\@writefile{toc}{\contentsline {chapter}{Index}{9}{section*.14}}
