\contentsline {chapter}{\numberline {1}Class Index}{1}{chapter.1}
\contentsline {section}{\numberline {1.1}Class List}{1}{section.1.1}
\contentsline {chapter}{\numberline {2}Class Documentation}{3}{chapter.2}
\contentsline {section}{\numberline {2.1}\discretionary {\unhbox \voidb@x \hbox {\relax \fontsize {7}{8}\selectfont $\leftarrow \joinrel \rhook $}}{}{}\_\discretionary {\unhbox \voidb@x \hbox {\relax \fontsize {7}{8}\selectfont $\leftarrow \joinrel \rhook $}}{}{}\discretionary {\unhbox \voidb@x \hbox {\relax \fontsize {7}{8}\selectfont $\leftarrow \joinrel \rhook $}}{}{}Location\discretionary {\unhbox \voidb@x \hbox {\relax \fontsize {7}{8}\selectfont $\leftarrow \joinrel \rhook $}}{}{}Info Struct Reference}{3}{section.2.1}
\contentsline {subsection}{\numberline {2.1.1}Detailed Description}{3}{subsection.2.1.1}
\contentsline {section}{\numberline {2.2}\discretionary {\unhbox \voidb@x \hbox {\relax \fontsize {7}{8}\selectfont $\leftarrow \joinrel \rhook $}}{}{}\_\discretionary {\unhbox \voidb@x \hbox {\relax \fontsize {7}{8}\selectfont $\leftarrow \joinrel \rhook $}}{}{}\discretionary {\unhbox \voidb@x \hbox {\relax \fontsize {7}{8}\selectfont $\leftarrow \joinrel \rhook $}}{}{}Stream\discretionary {\unhbox \voidb@x \hbox {\relax \fontsize {7}{8}\selectfont $\leftarrow \joinrel \rhook $}}{}{}Info Struct Reference}{3}{section.2.2}
\contentsline {subsection}{\numberline {2.2.1}Detailed Description}{3}{subsection.2.2.1}
\contentsline {section}{\numberline {2.3}\discretionary {\unhbox \voidb@x \hbox {\relax \fontsize {7}{8}\selectfont $\leftarrow \joinrel \rhook $}}{}{}\_\discretionary {\unhbox \voidb@x \hbox {\relax \fontsize {7}{8}\selectfont $\leftarrow \joinrel \rhook $}}{}{}\discretionary {\unhbox \voidb@x \hbox {\relax \fontsize {7}{8}\selectfont $\leftarrow \joinrel \rhook $}}{}{}Voice\discretionary {\unhbox \voidb@x \hbox {\relax \fontsize {7}{8}\selectfont $\leftarrow \joinrel \rhook $}}{}{}Info Struct Reference}{4}{section.2.3}
\contentsline {subsection}{\numberline {2.3.1}Detailed Description}{4}{subsection.2.3.1}
\contentsline {section}{\numberline {2.4}\discretionary {\unhbox \voidb@x \hbox {\relax \fontsize {7}{8}\selectfont $\leftarrow \joinrel \rhook $}}{}{}\_\discretionary {\unhbox \voidb@x \hbox {\relax \fontsize {7}{8}\selectfont $\leftarrow \joinrel \rhook $}}{}{}\discretionary {\unhbox \voidb@x \hbox {\relax \fontsize {7}{8}\selectfont $\leftarrow \joinrel \rhook $}}{}{}Voice\discretionary {\unhbox \voidb@x \hbox {\relax \fontsize {7}{8}\selectfont $\leftarrow \joinrel \rhook $}}{}{}Oscilloscope Struct Reference}{4}{section.2.4}
\contentsline {subsection}{\numberline {2.4.1}Detailed Description}{4}{subsection.2.4.1}
\contentsline {section}{\numberline {2.5}\discretionary {\unhbox \voidb@x \hbox {\relax \fontsize {7}{8}\selectfont $\leftarrow \joinrel \rhook $}}{}{}\_\discretionary {\unhbox \voidb@x \hbox {\relax \fontsize {7}{8}\selectfont $\leftarrow \joinrel \rhook $}}{}{}\discretionary {\unhbox \voidb@x \hbox {\relax \fontsize {7}{8}\selectfont $\leftarrow \joinrel \rhook $}}{}{}Voice\discretionary {\unhbox \voidb@x \hbox {\relax \fontsize {7}{8}\selectfont $\leftarrow \joinrel \rhook $}}{}{}Window Struct Reference}{4}{section.2.5}
\contentsline {subsection}{\numberline {2.5.1}Detailed Description}{5}{subsection.2.5.1}
\contentsline {section}{\numberline {2.6}\discretionary {\unhbox \voidb@x \hbox {\relax \fontsize {7}{8}\selectfont $\leftarrow \joinrel \rhook $}}{}{}\_\discretionary {\unhbox \voidb@x \hbox {\relax \fontsize {7}{8}\selectfont $\leftarrow \joinrel \rhook $}}{}{}\discretionary {\unhbox \voidb@x \hbox {\relax \fontsize {7}{8}\selectfont $\leftarrow \joinrel \rhook $}}{}{}V\discretionary {\unhbox \voidb@x \hbox {\relax \fontsize {7}{8}\selectfont $\leftarrow \joinrel \rhook $}}{}{}O\discretionary {\unhbox \voidb@x \hbox {\relax \fontsize {7}{8}\selectfont $\leftarrow \joinrel \rhook $}}{}{}S\discretionary {\unhbox \voidb@x \hbox {\relax \fontsize {7}{8}\selectfont $\leftarrow \joinrel \rhook $}}{}{}C\discretionary {\unhbox \voidb@x \hbox {\relax \fontsize {7}{8}\selectfont $\leftarrow \joinrel \rhook $}}{}{}Window Struct Reference}{5}{section.2.6}
\contentsline {subsection}{\numberline {2.6.1}Detailed Description}{5}{subsection.2.6.1}
\contentsline {section}{\numberline {2.7}Get\discretionary {\unhbox \voidb@x \hbox {\relax \fontsize {7}{8}\selectfont $\leftarrow \joinrel \rhook $}}{}{}Voicegram\discretionary {\unhbox \voidb@x \hbox {\relax \fontsize {7}{8}\selectfont $\leftarrow \joinrel \rhook $}}{}{}Data Struct Reference}{5}{section.2.7}
\contentsline {subsection}{\numberline {2.7.1}Detailed Description}{5}{subsection.2.7.1}
\contentsline {section}{\numberline {2.8}Gps\discretionary {\unhbox \voidb@x \hbox {\relax \fontsize {7}{8}\selectfont $\leftarrow \joinrel \rhook $}}{}{}Callback\discretionary {\unhbox \voidb@x \hbox {\relax \fontsize {7}{8}\selectfont $\leftarrow \joinrel \rhook $}}{}{}Data Struct Reference}{6}{section.2.8}
\contentsline {subsection}{\numberline {2.8.1}Detailed Description}{6}{subsection.2.8.1}
\contentsline {section}{\numberline {2.9}G\discretionary {\unhbox \voidb@x \hbox {\relax \fontsize {7}{8}\selectfont $\leftarrow \joinrel \rhook $}}{}{}Voice\discretionary {\unhbox \voidb@x \hbox {\relax \fontsize {7}{8}\selectfont $\leftarrow \joinrel \rhook $}}{}{}Cfg Struct Reference}{6}{section.2.9}
\contentsline {subsection}{\numberline {2.9.1}Detailed Description}{6}{subsection.2.9.1}
\contentsline {section}{\numberline {2.10}Location\discretionary {\unhbox \voidb@x \hbox {\relax \fontsize {7}{8}\selectfont $\leftarrow \joinrel \rhook $}}{}{}Callback\discretionary {\unhbox \voidb@x \hbox {\relax \fontsize {7}{8}\selectfont $\leftarrow \joinrel \rhook $}}{}{}Data Struct Reference}{6}{section.2.10}
\contentsline {subsection}{\numberline {2.10.1}Detailed Description}{6}{subsection.2.10.1}
\contentsline {section}{\numberline {2.11}Oscilloscope\discretionary {\unhbox \voidb@x \hbox {\relax \fontsize {7}{8}\selectfont $\leftarrow \joinrel \rhook $}}{}{}Callback\discretionary {\unhbox \voidb@x \hbox {\relax \fontsize {7}{8}\selectfont $\leftarrow \joinrel \rhook $}}{}{}Data Struct Reference}{7}{section.2.11}
\contentsline {subsection}{\numberline {2.11.1}Detailed Description}{7}{subsection.2.11.1}
\contentsline {section}{\numberline {2.12}Page\discretionary {\unhbox \voidb@x \hbox {\relax \fontsize {7}{8}\selectfont $\leftarrow \joinrel \rhook $}}{}{}Info Struct Reference}{7}{section.2.12}
\contentsline {subsection}{\numberline {2.12.1}Detailed Description}{7}{subsection.2.12.1}
\contentsline {chapter}{Index}{9}{section*.14}
